%YAML 1.1
%TAG !u! tag:unity3d.com,2011:
--- !u!74 &7400000
AnimationClip:
  m_ObjectHideFlags: 0
  m_PrefabParentObject: {fileID: 0}
  m_PrefabInternal: {fileID: 0}
  m_Name: CircleIdleAnimation4
  serializedVersion: 6
  m_Legacy: 0
  m_Compressed: 0
  m_UseHighQualityCurve: 1
  m_RotationCurves: []
  m_CompressedRotationCurves: []
  m_EulerCurves: []
  m_PositionCurves: []
  m_ScaleCurves:
  - curve:
      serializedVersion: 2
      m_Curve:
      - serializedVersion: 2
        time: 0
        value: {x: 0.6561, y: 0.6561, z: 0.6561}
        inSlope: {x: 0, y: 0, z: 0}
        outSlope: {x: 0, y: 0, z: 0}
        tangentMode: 0
      - serializedVersion: 2
        time: 2.4333334
        value: {x: 0.6561, y: 0.6561, z: 0.6561}
        inSlope: {x: 0, y: 0, z: 0}
        outSlope: {x: 0, y: 0, z: 0}
        tangentMode: 0
      m_PreInfinity: 2
      m_PostInfinity: 2
      m_RotationOrder: 4
    path: 
  m_FloatCurves: []
  m_PPtrCurves:
  - curve:
    - time: 0
      value: {fileID: 21300000, guid: 6ce8b9aa6d7c27b4f9627367d4c0f2c1, type: 3}
    - time: 0.083333336
      value: {fileID: 21300000, guid: 320bc291050cd1a44ae6977b081db532, type: 3}
    - time: 0.16666667
      value: {fileID: 21300000, guid: c62fdb6968c07ea4ca269b858bee887c, type: 3}
    - time: 0.25
      value: {fileID: 21300000, guid: 3e4863bec3a86b94ea756c1000f7df20, type: 3}
    - time: 0.33333334
      value: {fileID: 21300000, guid: 8bfbd417c3c0fd24b97d9ed6879084a4, type: 3}
    - time: 0.41666666
      value: {fileID: 21300000, guid: b8fbf30d70a3f7f4cb7d39164f10cc6a, type: 3}
    - time: 0.5
      value: {fileID: 21300000, guid: 0836b3b4bc6e9304b8e0ffde767fe1e1, type: 3}
    - time: 0.5833333
      value: {fileID: 21300000, guid: b1539ea1bbaca44489ce4e8dd33d6c7f, type: 3}
    - time: 0.6666667
      value: {fileID: 21300000, guid: 29fbd6a40f69f084983f94c473e0a3b0, type: 3}
    - time: 0.75
      value: {fileID: 21300000, guid: 72e985790281b2849a04c59948c4fd6e, type: 3}
    - time: 0.8333333
      value: {fileID: 21300000, guid: 71d648eb00f254b49b149b83dd3886b5, type: 3}
    - time: 0.9166667
      value: {fileID: 21300000, guid: d5248190c70b73f439cb9149e7ac8797, type: 3}
    - time: 1
      value: {fileID: 21300000, guid: 81a3584355c30114f92cad570c1800d6, type: 3}
    - time: 1.0833334
      value: {fileID: 21300000, guid: dac2d8dab639ac2428d06689a9bd6e83, type: 3}
    - time: 1.1666666
      value: {fileID: 21300000, guid: 544435f656faa7c4ca20c5f062219d17, type: 3}
    - time: 1.25
      value: {fileID: 21300000, guid: c3caa15698fd01f4cbab0e18a08fce11, type: 3}
    - time: 1.3333334
      value: {fileID: 21300000, guid: c4c914df47ae17a4b83b0fd578e1e7ef, type: 3}
    - time: 1.4166666
      value: {fileID: 21300000, guid: aec13a57b7b002747a31e8e7ee274bf9, type: 3}
    - time: 1.5
      value: {fileID: 21300000, guid: 6a51de8f178939a4dae0b27176a6bcf0, type: 3}
    - time: 1.5833334
      value: {fileID: 21300000, guid: 7b678787f8d4a274b9baad14affd5ab3, type: 3}
    - time: 1.6666666
      value: {fileID: 21300000, guid: 03fcf18544d1ec647b9c3378200721fe, type: 3}
    - time: 1.75
      value: {fileID: 21300000, guid: 09824468f444f5c4a9fa94cf6b5e3173, type: 3}
    - time: 1.8333334
      value: {fileID: 21300000, guid: ee3ccb2a0997fc1499ea73b9d6f4897d, type: 3}
    - time: 1.9166666
      value: {fileID: 21300000, guid: 810543903e5cf2b499f2c2de8f3a315e, type: 3}
    - time: 2
      value: {fileID: 21300000, guid: 9f97ddbae8c386c498c5de92e60ac1e9, type: 3}
    - time: 2.0833333
      value: {fileID: 21300000, guid: 847bfa81e50c14e47a072b2be5edde8d, type: 3}
    - time: 2.1666667
      value: {fileID: 21300000, guid: fc0f195ef597281428843bebf23ee59f, type: 3}
    - time: 2.25
      value: {fileID: 21300000, guid: 3bcaf182ad39d234fbf7584fd630f98f, type: 3}
    - time: 2.3333333
      value: {fileID: 21300000, guid: 98e4a3f56ba98274db05542b708a4ca9, type: 3}
    - time: 2.4166667
      value: {fileID: 21300000, guid: 00946464533292040b889f252dffe606, type: 3}
    attribute: m_Sprite
    path: 
    classID: 212
    script: {fileID: 0}
  m_SampleRate: 60
  m_WrapMode: 0
  m_Bounds:
    m_Center: {x: 0, y: 0, z: 0}
    m_Extent: {x: 0, y: 0, z: 0}
  m_ClipBindingConstant:
    genericBindings:
    - serializedVersion: 2
      path: 0
      attribute: 0
      script: {fileID: 0}
      typeID: 212
      customType: 23
      isPPtrCurve: 1
    - serializedVersion: 2
      path: 0
      attribute: 3
      script: {fileID: 0}
      typeID: 4
      customType: 0
      isPPtrCurve: 0
    pptrCurveMapping:
    - {fileID: 21300000, guid: 6ce8b9aa6d7c27b4f9627367d4c0f2c1, type: 3}
    - {fileID: 21300000, guid: 320bc291050cd1a44ae6977b081db532, type: 3}
    - {fileID: 21300000, guid: c62fdb6968c07ea4ca269b858bee887c, type: 3}
    - {fileID: 21300000, guid: 3e4863bec3a86b94ea756c1000f7df20, type: 3}
    - {fileID: 21300000, guid: 8bfbd417c3c0fd24b97d9ed6879084a4, type: 3}
    - {fileID: 21300000, guid: b8fbf30d70a3f7f4cb7d39164f10cc6a, type: 3}
    - {fileID: 21300000, guid: 0836b3b4bc6e9304b8e0ffde767fe1e1, type: 3}
    - {fileID: 21300000, guid: b1539ea1bbaca44489ce4e8dd33d6c7f, type: 3}
    - {fileID: 21300000, guid: 29fbd6a40f69f084983f94c473e0a3b0, type: 3}
    - {fileID: 21300000, guid: 72e985790281b2849a04c59948c4fd6e, type: 3}
    - {fileID: 21300000, guid: 71d648eb00f254b49b149b83dd3886b5, type: 3}
    - {fileID: 21300000, guid: d5248190c70b73f439cb9149e7ac8797, type: 3}
    - {fileID: 21300000, guid: 81a3584355c30114f92cad570c1800d6, type: 3}
    - {fileID: 21300000, guid: dac2d8dab639ac2428d06689a9bd6e83, type: 3}
    - {fileID: 21300000, guid: 544435f656faa7c4ca20c5f062219d17, type: 3}
    - {fileID: 21300000, guid: c3caa15698fd01f4cbab0e18a08fce11, type: 3}
    - {fileID: 21300000, guid: c4c914df47ae17a4b83b0fd578e1e7ef, type: 3}
    - {fileID: 21300000, guid: aec13a57b7b002747a31e8e7ee274bf9, type: 3}
    - {fileID: 21300000, guid: 6a51de8f178939a4dae0b27176a6bcf0, type: 3}
    - {fileID: 21300000, guid: 7b678787f8d4a274b9baad14affd5ab3, type: 3}
    - {fileID: 21300000, guid: 03fcf18544d1ec647b9c3378200721fe, type: 3}
    - {fileID: 21300000, guid: 09824468f444f5c4a9fa94cf6b5e3173, type: 3}
    - {fileID: 21300000, guid: ee3ccb2a0997fc1499ea73b9d6f4897d, type: 3}
    - {fileID: 21300000, guid: 810543903e5cf2b499f2c2de8f3a315e, type: 3}
    - {fileID: 21300000, guid: 9f97ddbae8c386c498c5de92e60ac1e9, type: 3}
    - {fileID: 21300000, guid: 847bfa81e50c14e47a072b2be5edde8d, type: 3}
    - {fileID: 21300000, guid: fc0f195ef597281428843bebf23ee59f, type: 3}
    - {fileID: 21300000, guid: 3bcaf182ad39d234fbf7584fd630f98f, type: 3}
    - {fileID: 21300000, guid: 98e4a3f56ba98274db05542b708a4ca9, type: 3}
    - {fileID: 21300000, guid: 00946464533292040b889f252dffe606, type: 3}
  m_AnimationClipSettings:
    serializedVersion: 2
    m_AdditiveReferencePoseClip: {fileID: 0}
    m_AdditiveReferencePoseTime: 0
    m_StartTime: 0
    m_StopTime: 2.4333334
    m_OrientationOffsetY: 0
    m_Level: 0
    m_CycleOffset: 0
    m_HasAdditiveReferencePose: 0
    m_LoopTime: 1
    m_LoopBlend: 0
    m_LoopBlendOrientation: 0
    m_LoopBlendPositionY: 0
    m_LoopBlendPositionXZ: 0
    m_KeepOriginalOrientation: 0
    m_KeepOriginalPositionY: 1
    m_KeepOriginalPositionXZ: 0
    m_HeightFromFeet: 0
    m_Mirror: 0
  m_EditorCurves:
  - curve:
      serializedVersion: 2
      m_Curve:
      - serializedVersion: 2
        time: 0
        value: 0.6561
        inSlope: 0
        outSlope: 0
        tangentMode: 136
      - serializedVersion: 2
        time: 2.4333334
        value: 0.6561
        inSlope: 0
        outSlope: 0
        tangentMode: 136
      m_PreInfinity: 2
      m_PostInfinity: 2
      m_RotationOrder: 4
    attribute: m_LocalScale.x
    path: 
    classID: 4
    script: {fileID: 0}
  - curve:
      serializedVersion: 2
      m_Curve:
      - serializedVersion: 2
        time: 0
        value: 0.6561
        inSlope: 0
        outSlope: 0
        tangentMode: 136
      - serializedVersion: 2
        time: 2.4333334
        value: 0.6561
        inSlope: 0
        outSlope: 0
        tangentMode: 136
      m_PreInfinity: 2
      m_PostInfinity: 2
      m_RotationOrder: 4
    attribute: m_LocalScale.y
    path: 
    classID: 4
    script: {fileID: 0}
  - curve:
      serializedVersion: 2
      m_Curve:
      - serializedVersion: 2
        time: 0
        value: 0.6561
        inSlope: 0
        outSlope: 0
        tangentMode: 136
      - serializedVersion: 2
        time: 2.4333334
        value: 0.6561
        inSlope: 0
        outSlope: 0
        tangentMode: 136
      m_PreInfinity: 2
      m_PostInfinity: 2
      m_RotationOrder: 4
    attribute: m_LocalScale.z
    path: 
    classID: 4
    script: {fileID: 0}
  m_EulerEditorCurves: []
  m_HasGenericRootTransform: 0
  m_HasMotionFloatCurves: 0
  m_GenerateMotionCurves: 0
  m_Events: []
