%YAML 1.1
%TAG !u! tag:unity3d.com,2011:
--- !u!74 &7400000
AnimationClip:
  m_ObjectHideFlags: 0
  m_PrefabParentObject: {fileID: 0}
  m_PrefabInternal: {fileID: 0}
  m_Name: FlipAnimation0
  serializedVersion: 6
  m_Legacy: 0
  m_Compressed: 0
  m_UseHighQualityCurve: 1
  m_RotationCurves: []
  m_CompressedRotationCurves: []
  m_EulerCurves: []
  m_PositionCurves: []
  m_ScaleCurves: []
  m_FloatCurves: []
  m_PPtrCurves:
  - curve:
    - time: 0
      value: {fileID: 21300000, guid: 56c30c9ff067fe3478596499c66389de, type: 3}
    - time: 0.083333336
      value: {fileID: 21300000, guid: c410aca649adbfb4f9ac40986d447ede, type: 3}
    - time: 0.16666667
      value: {fileID: 21300000, guid: 67e23daa5e81d5942a26fa7baad5931b, type: 3}
    - time: 0.25
      value: {fileID: 21300000, guid: 30c5c2446435ca248b9d1fcc08e4f82f, type: 3}
    - time: 0.33333334
      value: {fileID: 21300000, guid: 89e3427b41478314e8bb986c589eebee, type: 3}
    - time: 0.41666666
      value: {fileID: 21300000, guid: 9eb27ba9b4b44e34e9a9c0bd7450d169, type: 3}
    - time: 0.5
      value: {fileID: 21300000, guid: 40e39d95123841842aec9373f5ff3ba5, type: 3}
    - time: 0.5833333
      value: {fileID: 21300000, guid: fd3687c684cf9bc4dad04f6e370bc1a0, type: 3}
    - time: 0.6666667
      value: {fileID: 21300000, guid: 1f9fbdb5117965749ac37a8a968b923d, type: 3}
    - time: 0.75
      value: {fileID: 21300000, guid: 64bd114cfa0c2a148ad683d48f5e9816, type: 3}
    - time: 0.8333333
      value: {fileID: 21300000, guid: 73a616801ed6f814198e308fd2702b1b, type: 3}
    - time: 0.9166667
      value: {fileID: 21300000, guid: 9fbc9dba2e9162341a3ccef46f846e1d, type: 3}
    - time: 1
      value: {fileID: 21300000, guid: b6fc545e3fe44d946bd243d8c524d898, type: 3}
    - time: 1.0833334
      value: {fileID: 21300000, guid: 654c1d1059f5f0e439b64e681f07d40e, type: 3}
    - time: 1.1666666
      value: {fileID: 21300000, guid: 2a30413141e6ca74ba88a2fcb5651c5f, type: 3}
    - time: 1.25
      value: {fileID: 21300000, guid: 640aa5b6e8b928d41bcbfe58c4184ad9, type: 3}
    - time: 1.3333334
      value: {fileID: 21300000, guid: 02ed5d03b6b84f9459ec0391bb5bf9cf, type: 3}
    - time: 1.4166666
      value: {fileID: 21300000, guid: 776bf0aaa6ddd874b97adc96f50a29c8, type: 3}
    - time: 1.5
      value: {fileID: 21300000, guid: 17724332402c9a64b9118bfbe8e70771, type: 3}
    - time: 1.5833334
      value: {fileID: 21300000, guid: 6f3a6d985d3c77e46acd028db2a98366, type: 3}
    - time: 1.6666666
      value: {fileID: 21300000, guid: 24b9b8d50ceef51418765706195ead78, type: 3}
    - time: 1.75
      value: {fileID: 21300000, guid: 69bf0c23e661bbd4d97d3beb0c62165a, type: 3}
    - time: 1.8333334
      value: {fileID: 21300000, guid: dcd7fe7cd54e7bf4c8d6a5bd30463760, type: 3}
    - time: 1.9166666
      value: {fileID: 21300000, guid: 9874ac207d261d140932cb0275f2aa01, type: 3}
    - time: 2
      value: {fileID: 21300000, guid: 7800af975b152554cbd54f926bb30f89, type: 3}
    - time: 2.0833333
      value: {fileID: 21300000, guid: ec6c978a6efffd445b437b53ee05bf6c, type: 3}
    - time: 2.1666667
      value: {fileID: 21300000, guid: d2f8e59839ac94f42b904ba453628868, type: 3}
    - time: 2.25
      value: {fileID: 21300000, guid: e0c191341b8bd07419f5aed609b6670b, type: 3}
    - time: 2.3333333
      value: {fileID: 21300000, guid: ec56f8b8b4b863343aa6c08d0e36a979, type: 3}
    - time: 2.4166667
      value: {fileID: 21300000, guid: 93ca0ac1b0b27a143af241fa6bc1480e, type: 3}
    attribute: m_Sprite
    path: 
    classID: 212
    script: {fileID: 0}
  m_SampleRate: 12
  m_WrapMode: 0
  m_Bounds:
    m_Center: {x: 0, y: 0, z: 0}
    m_Extent: {x: 0, y: 0, z: 0}
  m_ClipBindingConstant:
    genericBindings:
    - serializedVersion: 2
      path: 0
      attribute: 0
      script: {fileID: 0}
      typeID: 212
      customType: 23
      isPPtrCurve: 1
    pptrCurveMapping:
    - {fileID: 21300000, guid: 56c30c9ff067fe3478596499c66389de, type: 3}
    - {fileID: 21300000, guid: c410aca649adbfb4f9ac40986d447ede, type: 3}
    - {fileID: 21300000, guid: 67e23daa5e81d5942a26fa7baad5931b, type: 3}
    - {fileID: 21300000, guid: 30c5c2446435ca248b9d1fcc08e4f82f, type: 3}
    - {fileID: 21300000, guid: 89e3427b41478314e8bb986c589eebee, type: 3}
    - {fileID: 21300000, guid: 9eb27ba9b4b44e34e9a9c0bd7450d169, type: 3}
    - {fileID: 21300000, guid: 40e39d95123841842aec9373f5ff3ba5, type: 3}
    - {fileID: 21300000, guid: fd3687c684cf9bc4dad04f6e370bc1a0, type: 3}
    - {fileID: 21300000, guid: 1f9fbdb5117965749ac37a8a968b923d, type: 3}
    - {fileID: 21300000, guid: 64bd114cfa0c2a148ad683d48f5e9816, type: 3}
    - {fileID: 21300000, guid: 73a616801ed6f814198e308fd2702b1b, type: 3}
    - {fileID: 21300000, guid: 9fbc9dba2e9162341a3ccef46f846e1d, type: 3}
    - {fileID: 21300000, guid: b6fc545e3fe44d946bd243d8c524d898, type: 3}
    - {fileID: 21300000, guid: 654c1d1059f5f0e439b64e681f07d40e, type: 3}
    - {fileID: 21300000, guid: 2a30413141e6ca74ba88a2fcb5651c5f, type: 3}
    - {fileID: 21300000, guid: 640aa5b6e8b928d41bcbfe58c4184ad9, type: 3}
    - {fileID: 21300000, guid: 02ed5d03b6b84f9459ec0391bb5bf9cf, type: 3}
    - {fileID: 21300000, guid: 776bf0aaa6ddd874b97adc96f50a29c8, type: 3}
    - {fileID: 21300000, guid: 17724332402c9a64b9118bfbe8e70771, type: 3}
    - {fileID: 21300000, guid: 6f3a6d985d3c77e46acd028db2a98366, type: 3}
    - {fileID: 21300000, guid: 24b9b8d50ceef51418765706195ead78, type: 3}
    - {fileID: 21300000, guid: 69bf0c23e661bbd4d97d3beb0c62165a, type: 3}
    - {fileID: 21300000, guid: dcd7fe7cd54e7bf4c8d6a5bd30463760, type: 3}
    - {fileID: 21300000, guid: 9874ac207d261d140932cb0275f2aa01, type: 3}
    - {fileID: 21300000, guid: 7800af975b152554cbd54f926bb30f89, type: 3}
    - {fileID: 21300000, guid: ec6c978a6efffd445b437b53ee05bf6c, type: 3}
    - {fileID: 21300000, guid: d2f8e59839ac94f42b904ba453628868, type: 3}
    - {fileID: 21300000, guid: e0c191341b8bd07419f5aed609b6670b, type: 3}
    - {fileID: 21300000, guid: ec56f8b8b4b863343aa6c08d0e36a979, type: 3}
    - {fileID: 21300000, guid: 93ca0ac1b0b27a143af241fa6bc1480e, type: 3}
  m_AnimationClipSettings:
    serializedVersion: 2
    m_AdditiveReferencePoseClip: {fileID: 0}
    m_AdditiveReferencePoseTime: 0
    m_StartTime: 0
    m_StopTime: 2.5
    m_OrientationOffsetY: 0
    m_Level: 0
    m_CycleOffset: 0
    m_HasAdditiveReferencePose: 0
    m_LoopTime: 0
    m_LoopBlend: 0
    m_LoopBlendOrientation: 0
    m_LoopBlendPositionY: 0
    m_LoopBlendPositionXZ: 0
    m_KeepOriginalOrientation: 0
    m_KeepOriginalPositionY: 1
    m_KeepOriginalPositionXZ: 0
    m_HeightFromFeet: 0
    m_Mirror: 0
  m_EditorCurves: []
  m_EulerEditorCurves: []
  m_HasGenericRootTransform: 0
  m_HasMotionFloatCurves: 0
  m_GenerateMotionCurves: 0
  m_Events: []
